<?xml version="1.0" encoding="utf-8"?>
<!DOCTYPE eagle SYSTEM "eagle.dtd">
<eagle version="9.6.2">
<drawing>
<settings>
<setting alwaysvectorfont="yes"/>
<setting verticaltext="up"/>
</settings>
<grid distance="50" unitdist="mil" unit="mil" style="lines" multiple="1" display="no" altdistance="5" altunitdist="mil" altunit="mil"/>
<layers>
<layer number="1" name="Top" color="4" fill="1" visible="yes" active="yes"/>
<layer number="2" name="Route2" color="16" fill="1" visible="no" active="no"/>
<layer number="3" name="Route3" color="17" fill="1" visible="no" active="no"/>
<layer number="4" name="Route4" color="18" fill="1" visible="no" active="no"/>
<layer number="5" name="Route5" color="19" fill="1" visible="no" active="no"/>
<layer number="6" name="Route6" color="25" fill="1" visible="no" active="no"/>
<layer number="7" name="Route7" color="26" fill="1" visible="no" active="no"/>
<layer number="8" name="Route8" color="27" fill="1" visible="no" active="no"/>
<layer number="9" name="Route9" color="28" fill="1" visible="no" active="no"/>
<layer number="10" name="Route10" color="29" fill="1" visible="no" active="no"/>
<layer number="11" name="Route11" color="30" fill="1" visible="no" active="no"/>
<layer number="12" name="Route12" color="20" fill="1" visible="no" active="no"/>
<layer number="13" name="Route13" color="21" fill="1" visible="no" active="no"/>
<layer number="14" name="Route14" color="22" fill="1" visible="no" active="no"/>
<layer number="15" name="Route15" color="23" fill="1" visible="no" active="no"/>
<layer number="16" name="Bottom" color="1" fill="1" visible="yes" active="yes"/>
<layer number="17" name="Pads" color="2" fill="1" visible="yes" active="yes"/>
<layer number="18" name="Vias" color="2" fill="1" visible="yes" active="yes"/>
<layer number="19" name="Unrouted" color="6" fill="1" visible="yes" active="yes"/>
<layer number="20" name="Dimension" color="24" fill="1" visible="yes" active="yes"/>
<layer number="21" name="tPlace" color="7" fill="1" visible="yes" active="yes"/>
<layer number="22" name="bPlace" color="7" fill="1" visible="yes" active="yes"/>
<layer number="23" name="tOrigins" color="15" fill="1" visible="yes" active="yes"/>
<layer number="24" name="bOrigins" color="15" fill="1" visible="yes" active="yes"/>
<layer number="25" name="tNames" color="7" fill="1" visible="yes" active="yes"/>
<layer number="26" name="bNames" color="7" fill="1" visible="yes" active="yes"/>
<layer number="27" name="tValues" color="7" fill="1" visible="yes" active="yes"/>
<layer number="28" name="bValues" color="7" fill="1" visible="yes" active="yes"/>
<layer number="29" name="tStop" color="7" fill="3" visible="yes" active="yes"/>
<layer number="30" name="bStop" color="7" fill="6" visible="yes" active="yes"/>
<layer number="31" name="tCream" color="7" fill="4" visible="yes" active="yes"/>
<layer number="32" name="bCream" color="7" fill="5" visible="yes" active="yes"/>
<layer number="33" name="tFinish" color="6" fill="3" visible="no" active="yes"/>
<layer number="34" name="bFinish" color="6" fill="6" visible="no" active="yes"/>
<layer number="35" name="tGlue" color="7" fill="4" visible="no" active="yes"/>
<layer number="36" name="bGlue" color="7" fill="5" visible="no" active="yes"/>
<layer number="37" name="tTest" color="7" fill="1" visible="no" active="yes"/>
<layer number="38" name="bTest" color="7" fill="1" visible="no" active="yes"/>
<layer number="39" name="tKeepout" color="4" fill="11" visible="yes" active="yes"/>
<layer number="40" name="bKeepout" color="1" fill="11" visible="yes" active="yes"/>
<layer number="41" name="tRestrict" color="4" fill="10" visible="yes" active="yes"/>
<layer number="42" name="bRestrict" color="1" fill="10" visible="yes" active="yes"/>
<layer number="43" name="vRestrict" color="2" fill="10" visible="yes" active="yes"/>
<layer number="44" name="Drills" color="7" fill="1" visible="yes" active="yes"/>
<layer number="45" name="Holes" color="7" fill="1" visible="yes" active="yes"/>
<layer number="46" name="Milling" color="3" fill="1" visible="no" active="yes"/>
<layer number="47" name="Measures" color="7" fill="1" visible="yes" active="yes"/>
<layer number="48" name="Document" color="7" fill="1" visible="yes" active="yes"/>
<layer number="49" name="Reference" color="7" fill="1" visible="yes" active="yes"/>
<layer number="50" name="dxf" color="7" fill="1" visible="no" active="no"/>
<layer number="51" name="tDocu" color="7" fill="1" visible="yes" active="yes"/>
<layer number="52" name="bDocu" color="7" fill="1" visible="yes" active="yes"/>
<layer number="53" name="tGND_GNDA" color="7" fill="9" visible="no" active="no"/>
<layer number="54" name="bGND_GNDA" color="1" fill="9" visible="no" active="no"/>
<layer number="56" name="wert" color="7" fill="1" visible="no" active="no"/>
<layer number="57" name="tCAD" color="7" fill="1" visible="no" active="no"/>
<layer number="59" name="tCarbon" color="7" fill="1" visible="no" active="no"/>
<layer number="60" name="bCarbon" color="7" fill="1" visible="no" active="no"/>
<layer number="88" name="SimResults" color="9" fill="1" visible="no" active="no"/>
<layer number="89" name="SimProbes" color="9" fill="1" visible="no" active="no"/>
<layer number="90" name="Modules" color="5" fill="1" visible="no" active="no"/>
<layer number="91" name="Nets" color="2" fill="1" visible="no" active="no"/>
<layer number="92" name="Busses" color="1" fill="1" visible="no" active="no"/>
<layer number="93" name="Pins" color="2" fill="1" visible="no" active="no"/>
<layer number="94" name="Symbols" color="4" fill="1" visible="no" active="no"/>
<layer number="95" name="Names" color="7" fill="1" visible="no" active="no"/>
<layer number="96" name="Values" color="7" fill="1" visible="no" active="no"/>
<layer number="97" name="Info" color="7" fill="1" visible="no" active="no"/>
<layer number="98" name="Guide" color="6" fill="1" visible="no" active="no"/>
<layer number="99" name="SpiceOrder" color="7" fill="1" visible="no" active="no"/>
<layer number="100" name="Muster" color="7" fill="1" visible="yes" active="yes"/>
<layer number="101" name="Patch_Top" color="12" fill="4" visible="yes" active="yes"/>
<layer number="102" name="Mittellin" color="7" fill="1" visible="yes" active="yes"/>
<layer number="103" name="Stiffner" color="7" fill="1" visible="yes" active="yes"/>
<layer number="104" name="Name" color="7" fill="1" visible="yes" active="yes"/>
<layer number="105" name="Beschreib" color="7" fill="1" visible="yes" active="yes"/>
<layer number="106" name="BGA-Top" color="7" fill="1" visible="yes" active="yes"/>
<layer number="107" name="BD-Top" color="7" fill="1" visible="yes" active="yes"/>
<layer number="108" name="tBridges" color="7" fill="1" visible="yes" active="yes"/>
<layer number="109" name="tBPL" color="7" fill="1" visible="yes" active="yes"/>
<layer number="110" name="bBPL" color="7" fill="1" visible="yes" active="yes"/>
<layer number="111" name="MPL" color="7" fill="1" visible="yes" active="yes"/>
<layer number="112" name="tSilk" color="7" fill="1" visible="yes" active="yes"/>
<layer number="113" name="ReferenceLS" color="7" fill="1" visible="no" active="no"/>
<layer number="114" name="tPlaceRed" color="7" fill="1" visible="no" active="yes"/>
<layer number="115" name="ReferenceISLANDS" color="7" fill="1" visible="yes" active="yes"/>
<layer number="116" name="Patch_BOT" color="9" fill="4" visible="yes" active="yes"/>
<layer number="118" name="Rect_Pads" color="7" fill="1" visible="no" active="no"/>
<layer number="121" name="sName" color="7" fill="1" visible="yes" active="yes"/>
<layer number="122" name="_bPlace" color="7" fill="1" visible="yes" active="yes"/>
<layer number="123" name="tTestmark" color="7" fill="1" visible="no" active="yes"/>
<layer number="124" name="bTestmark" color="7" fill="1" visible="no" active="yes"/>
<layer number="125" name="_tNames" color="7" fill="1" visible="yes" active="yes"/>
<layer number="126" name="_bNames" color="7" fill="1" visible="yes" active="yes"/>
<layer number="127" name="_tValues" color="7" fill="1" visible="yes" active="yes"/>
<layer number="128" name="_bValues" color="7" fill="1" visible="yes" active="yes"/>
<layer number="129" name="Mask" color="7" fill="1" visible="yes" active="yes"/>
<layer number="131" name="tAdjust" color="7" fill="1" visible="no" active="yes"/>
<layer number="132" name="bAdjust" color="7" fill="1" visible="no" active="yes"/>
<layer number="144" name="Drill_legend" color="7" fill="1" visible="yes" active="yes"/>
<layer number="150" name="Notes" color="7" fill="1" visible="yes" active="yes"/>
<layer number="151" name="HeatSink" color="7" fill="1" visible="yes" active="yes"/>
<layer number="152" name="_bDocu" color="7" fill="1" visible="yes" active="yes"/>
<layer number="153" name="FabDoc1" color="6" fill="1" visible="no" active="no"/>
<layer number="154" name="FabDoc2" color="2" fill="1" visible="no" active="no"/>
<layer number="155" name="FabDoc3" color="7" fill="15" visible="no" active="no"/>
<layer number="199" name="Contour" color="7" fill="1" visible="yes" active="yes"/>
<layer number="200" name="200bmp" color="1" fill="10" visible="yes" active="yes"/>
<layer number="201" name="201bmp" color="7" fill="1" visible="yes" active="yes"/>
<layer number="202" name="202bmp" color="7" fill="1" visible="yes" active="yes"/>
<layer number="203" name="203bmp" color="7" fill="1" visible="yes" active="yes"/>
<layer number="204" name="204bmp" color="7" fill="1" visible="yes" active="yes"/>
<layer number="205" name="205bmp" color="7" fill="1" visible="yes" active="yes"/>
<layer number="206" name="206bmp" color="7" fill="10" visible="yes" active="yes"/>
<layer number="207" name="207bmp" color="8" fill="10" visible="yes" active="yes"/>
<layer number="208" name="208bmp" color="9" fill="10" visible="yes" active="yes"/>
<layer number="209" name="209bmp" color="7" fill="1" visible="no" active="yes"/>
<layer number="210" name="210bmp" color="7" fill="1" visible="no" active="yes"/>
<layer number="211" name="211bmp" color="7" fill="1" visible="yes" active="yes"/>
<layer number="212" name="212bmp" color="7" fill="1" visible="yes" active="yes"/>
<layer number="213" name="213bmp" color="7" fill="1" visible="yes" active="yes"/>
<layer number="214" name="214bmp" color="7" fill="1" visible="yes" active="yes"/>
<layer number="215" name="215bmp" color="7" fill="1" visible="yes" active="yes"/>
<layer number="216" name="216bmp" color="7" fill="1" visible="yes" active="yes"/>
<layer number="217" name="217bmp" color="18" fill="1" visible="no" active="no"/>
<layer number="218" name="218bmp" color="19" fill="1" visible="no" active="no"/>
<layer number="219" name="219bmp" color="20" fill="1" visible="no" active="no"/>
<layer number="220" name="220bmp" color="21" fill="1" visible="no" active="no"/>
<layer number="221" name="221bmp" color="22" fill="1" visible="no" active="no"/>
<layer number="222" name="222bmp" color="23" fill="1" visible="no" active="no"/>
<layer number="223" name="223bmp" color="24" fill="1" visible="no" active="no"/>
<layer number="224" name="224bmp" color="25" fill="1" visible="no" active="no"/>
<layer number="225" name="225bmp" color="7" fill="1" visible="yes" active="yes"/>
<layer number="226" name="226bmp" color="7" fill="1" visible="yes" active="yes"/>
<layer number="227" name="227bmp" color="7" fill="1" visible="yes" active="yes"/>
<layer number="228" name="228bmp" color="7" fill="1" visible="yes" active="yes"/>
<layer number="229" name="229bmp" color="7" fill="1" visible="yes" active="yes"/>
<layer number="230" name="230bmp" color="7" fill="1" visible="yes" active="yes"/>
<layer number="231" name="Eagle3D_PG1" color="7" fill="1" visible="no" active="no"/>
<layer number="232" name="Eagle3D_PG2" color="7" fill="1" visible="no" active="no"/>
<layer number="233" name="Eagle3D_PG3" color="7" fill="1" visible="no" active="no"/>
<layer number="248" name="Housing" color="7" fill="1" visible="yes" active="yes"/>
<layer number="249" name="Edge" color="7" fill="1" visible="yes" active="yes"/>
<layer number="250" name="Descript" color="7" fill="1" visible="yes" active="yes"/>
<layer number="251" name="SMDround" color="7" fill="1" visible="yes" active="yes"/>
<layer number="254" name="cooling" color="7" fill="1" visible="yes" active="yes"/>
<layer number="255" name="routoute" color="7" fill="1" visible="yes" active="yes"/>
</layers>
<board>
<plain>
<wire x1="0" y1="0" x2="96.5" y2="0" width="0" layer="20"/>
<wire x1="96.5" y1="0" x2="96.5" y2="44.12" width="0" layer="20"/>
<wire x1="96.5" y1="44.12" x2="0" y2="44.12" width="0" layer="20"/>
<wire x1="0" y1="44.12" x2="0" y2="0" width="0" layer="20"/>
<wire x1="57.15" y1="0" x2="62.23" y2="0" width="0" layer="20"/>
<wire x1="62.23" y1="0" x2="63.5" y2="1.27" width="0" layer="20" curve="90"/>
<wire x1="63.5" y1="1.27" x2="63.5" y2="34.29" width="0" layer="20"/>
<wire x1="63.5" y1="34.29" x2="62.23" y2="35.56" width="0" layer="20" curve="90"/>
<wire x1="62.23" y1="35.56" x2="46.99" y2="35.56" width="0" layer="20"/>
<wire x1="46.99" y1="35.56" x2="45.72" y2="34.29" width="0" layer="20" curve="90"/>
<wire x1="45.72" y1="34.29" x2="45.72" y2="1.27" width="0" layer="20"/>
<wire x1="45.72" y1="1.27" x2="46.99" y2="0" width="0" layer="20" curve="90"/>
<wire x1="46.99" y1="0" x2="51.816" y2="0" width="0" layer="20"/>
<wire x1="51.816" y1="0" x2="52.324" y2="0.508" width="0" layer="20"/>
<wire x1="52.324" y1="0.508" x2="56.642" y2="0.508" width="0" layer="20"/>
<wire x1="56.642" y1="0.508" x2="57.15" y2="0" width="0" layer="20"/>
<wire x1="93.726" y1="0" x2="81.026" y2="0" width="0" layer="20"/>
<wire x1="81.026" y1="0" x2="78.486" y2="2.54" width="0" layer="20" curve="-90"/>
<wire x1="78.486" y1="2.54" x2="78.486" y2="22.86" width="0" layer="20"/>
<wire x1="78.486" y1="22.86" x2="81.026" y2="25.4" width="0" layer="20" curve="-90"/>
<wire x1="81.026" y1="25.4" x2="93.726" y2="25.4" width="0" layer="20"/>
<wire x1="93.726" y1="25.4" x2="96.266" y2="22.86" width="0" layer="20" curve="-90"/>
<wire x1="96.266" y1="22.86" x2="96.266" y2="2.54" width="0" layer="20"/>
<wire x1="96.266" y1="2.54" x2="93.726" y2="0" width="0" layer="20" curve="-90"/>
<text x="6.985" y="19.177" size="1.778" layer="21" rot="R270">GND</text>
<text x="6.985" y="3.429" size="1.778" layer="21" rot="R270">M1</text>
<text x="6.985" y="38.227" size="1.778" layer="21" rot="R270">GND</text>
<text x="6.985" y="22.479" size="1.778" layer="21" rot="R270">M1</text>
</plain>
<libraries>
<library name="microbuilder">
<description>&lt;h2&gt;&lt;b&gt;microBuilder.eu&lt;/b&gt; Eagle Footprint Library&lt;/h2&gt;

&lt;p&gt;Footprints for common components used in our projects and products.  This is the same library that we use internally, and it is regularly updated.  The newest version can always be found at &lt;b&gt;www.microBuilder.eu&lt;/b&gt;.  If you find this library useful, please feel free to purchase something from our online store. Please also note that all holes are optimised for metric drill bits!&lt;/p&gt;

&lt;h3&gt;Obligatory Warning&lt;/h3&gt;
&lt;p&gt;While it probably goes without saying, there are no guarantees that the footprints or schematic symbols in this library are flawless, and we make no promises of fitness for production, prototyping or any other purpose. These libraries are provided for information puposes only, and are used at your own discretion.  While we make every effort to produce accurate footprints, and many of the items found in this library have be proven in production, we can't make any promises of suitability for a specific purpose. If you do find any errors, though, please feel free to contact us at www.microbuilder.eu to let us know about it so that we can update the library accordingly!&lt;/p&gt;

&lt;h3&gt;License&lt;/h3&gt;
&lt;p&gt;This work is placed in the public domain, and may be freely used for commercial and non-commercial work with the following conditions:&lt;/p&gt;
&lt;p&gt;THIS SOFTWARE IS PROVIDED ''AS IS'' AND ANY EXPRESS OR IMPLIED WARRANTIES, INCLUDING, BUT NOT LIMITED TO, THE IMPLIED WARRANTIES OF MERCHANTABILITY AND FITNESS FOR A PARTICULAR PURPOSE ARE DISCLAIMED.  IN NO EVENT SHALL THE INSTITUTE OR CONTRIBUTORS BE LIABLE FOR ANY DIRECT, INDIRECT, INCIDENTAL, SPECIAL, EXEMPLARY, OR CONSEQUENTIAL DAMAGES (INCLUDING,  BUT NOT LIMITED TO, PROCUREMENT OF SUBSTITUTE GOODS OR SERVICES; LOSS OF USE, DATA, OR PROFITS; OR BUSINESS INTERRUPTION) HOWEVER CAUSED AND ON ANY THEORY OF LIABILITY, WHETHER IN CONTRACT, STRICT LIABILITY, OR TORT (INCLUDING NEGLIGENCE OR OTHERWISE) ARISING IN ANY WAY OUT OF THE USE OF THIS SOFTWARE, EVEN IF ADVISED OF THE POSSIBILITY OF SUCH DAMAGE.
&lt;/p&gt;</description>
<packages>
<package name="1X14_ROUND70">
<wire x1="-17.78" y1="0.635" x2="-17.78" y2="-0.635" width="0.2032" layer="51"/>
<pad name="1" x="-16.51" y="0" drill="1" diameter="1.6764" rot="R90"/>
<pad name="2" x="-13.97" y="0" drill="1" diameter="1.6764" rot="R90"/>
<pad name="3" x="-11.43" y="0" drill="1" diameter="1.6764" rot="R90"/>
<pad name="4" x="-8.89" y="0" drill="1" diameter="1.6764" rot="R90"/>
<pad name="5" x="-6.35" y="0" drill="1" diameter="1.6764" rot="R90"/>
<pad name="6" x="-3.81" y="0" drill="1" diameter="1.6764" rot="R90"/>
<pad name="7" x="-1.27" y="0" drill="1" diameter="1.6764" rot="R90"/>
<pad name="8" x="1.27" y="0" drill="1" diameter="1.6764" rot="R90"/>
<pad name="9" x="3.81" y="0" drill="1" diameter="1.6764" rot="R90"/>
<pad name="10" x="6.35" y="0" drill="1" diameter="1.6764" rot="R90"/>
<pad name="11" x="8.89" y="0" drill="1" diameter="1.6764" rot="R90"/>
<pad name="12" x="11.43" y="0" drill="1" diameter="1.6764" rot="R90"/>
<text x="-17.8562" y="1.8288" size="0.8128" layer="25" ratio="18">&gt;NAME</text>
<text x="-17.78" y="-3.175" size="0.4064" layer="27" ratio="10">&gt;VALUE</text>
<rectangle x1="3.556" y1="-0.254" x2="4.064" y2="0.254" layer="51"/>
<rectangle x1="1.016" y1="-0.254" x2="1.524" y2="0.254" layer="51"/>
<rectangle x1="-1.524" y1="-0.254" x2="-1.016" y2="0.254" layer="51"/>
<rectangle x1="-4.064" y1="-0.254" x2="-3.556" y2="0.254" layer="51"/>
<rectangle x1="-6.604" y1="-0.254" x2="-6.096" y2="0.254" layer="51"/>
<rectangle x1="-9.144" y1="-0.254" x2="-8.636" y2="0.254" layer="51"/>
<rectangle x1="-11.684" y1="-0.254" x2="-11.176" y2="0.254" layer="51"/>
<rectangle x1="-14.224" y1="-0.254" x2="-13.716" y2="0.254" layer="51"/>
<rectangle x1="-16.764" y1="-0.254" x2="-16.256" y2="0.254" layer="51"/>
<rectangle x1="6.096" y1="-0.254" x2="6.604" y2="0.254" layer="51"/>
<rectangle x1="8.636" y1="-0.254" x2="9.144" y2="0.254" layer="51"/>
<rectangle x1="11.176" y1="-0.254" x2="11.684" y2="0.254" layer="51"/>
<pad name="13" x="13.97" y="0" drill="1" diameter="1.6764" rot="R90"/>
<rectangle x1="13.716" y1="-0.254" x2="14.224" y2="0.254" layer="51"/>
<pad name="14" x="16.51" y="0" drill="1" diameter="1.6764" rot="R90"/>
<rectangle x1="16.256" y1="-0.254" x2="16.764" y2="0.254" layer="51"/>
</package>
<package name="1X05_ROUND_70">
<wire x1="-6.35" y1="0.635" x2="-6.35" y2="-0.635" width="0.2032" layer="51"/>
<pad name="1" x="-5.08" y="0" drill="1" diameter="1.778" rot="R90"/>
<pad name="2" x="-2.54" y="0" drill="1" diameter="1.778" rot="R90"/>
<pad name="3" x="0" y="0" drill="1" diameter="1.778" rot="R90"/>
<pad name="4" x="2.54" y="0" drill="1" diameter="1.778" rot="R90"/>
<pad name="5" x="5.08" y="0" drill="1" diameter="1.778" rot="R90"/>
<text x="-6.4262" y="1.8288" size="0.8128" layer="25" ratio="18">&gt;NAME</text>
<text x="-6.35" y="-3.175" size="0.4064" layer="27" ratio="10">&gt;VALUE</text>
<rectangle x1="2.286" y1="-0.254" x2="2.794" y2="0.254" layer="51"/>
<rectangle x1="-0.254" y1="-0.254" x2="0.254" y2="0.254" layer="51"/>
<rectangle x1="-2.794" y1="-0.254" x2="-2.286" y2="0.254" layer="51"/>
<rectangle x1="-5.334" y1="-0.254" x2="-4.826" y2="0.254" layer="51"/>
<rectangle x1="4.826" y1="-0.254" x2="5.334" y2="0.254" layer="51"/>
</package>
<package name="1X02_ROUND">
<wire x1="-2.54" y1="0.635" x2="-2.54" y2="-0.635" width="0.2032" layer="51"/>
<pad name="1" x="-1.27" y="0" drill="1" diameter="1.778" rot="R90"/>
<pad name="2" x="1.27" y="0" drill="1" diameter="1.778" rot="R90"/>
<text x="-2.6162" y="1.8288" size="0.8128" layer="25" ratio="18">&gt;NAME</text>
<text x="-2.54" y="-3.175" size="0.4064" layer="27" ratio="10">&gt;VALUE</text>
<rectangle x1="-1.524" y1="-0.254" x2="-1.016" y2="0.254" layer="51"/>
<rectangle x1="1.016" y1="-0.254" x2="1.524" y2="0.254" layer="51"/>
</package>
<package name="1X08_ROUND_70">
<wire x1="-10.16" y1="0.635" x2="-10.16" y2="-0.635" width="0.2032" layer="51"/>
<pad name="1" x="-8.89" y="0" drill="1" diameter="1.778" rot="R90"/>
<pad name="2" x="-6.35" y="0" drill="1" diameter="1.778" rot="R90"/>
<pad name="3" x="-3.81" y="0" drill="1" diameter="1.778" rot="R90"/>
<pad name="4" x="-1.27" y="0" drill="1" diameter="1.778" rot="R90"/>
<pad name="5" x="1.27" y="0" drill="1" diameter="1.778" rot="R90"/>
<pad name="6" x="3.81" y="0" drill="1" diameter="1.778" rot="R90"/>
<pad name="7" x="6.35" y="0" drill="1" diameter="1.778" rot="R90"/>
<pad name="8" x="8.89" y="0" drill="1" diameter="1.778" rot="R90"/>
<text x="-10.2362" y="1.8288" size="0.8128" layer="25" ratio="18">&gt;NAME</text>
<text x="-10.16" y="-3.175" size="0.4064" layer="27" ratio="10">&gt;VALUE</text>
<rectangle x1="6.096" y1="-0.254" x2="6.604" y2="0.254" layer="51"/>
<rectangle x1="3.556" y1="-0.254" x2="4.064" y2="0.254" layer="51"/>
<rectangle x1="1.016" y1="-0.254" x2="1.524" y2="0.254" layer="51"/>
<rectangle x1="-1.524" y1="-0.254" x2="-1.016" y2="0.254" layer="51"/>
<rectangle x1="-4.064" y1="-0.254" x2="-3.556" y2="0.254" layer="51"/>
<rectangle x1="-6.604" y1="-0.254" x2="-6.096" y2="0.254" layer="51"/>
<rectangle x1="-9.144" y1="-0.254" x2="-8.636" y2="0.254" layer="51"/>
<rectangle x1="8.636" y1="-0.254" x2="9.144" y2="0.254" layer="51"/>
</package>
</packages>
</library>
<library name="SparkFun-Connectors">
<description>&lt;h3&gt;SparkFun Electronics' preferred foot prints&lt;/h3&gt;
In this library you'll find connectors and sockets- basically anything that can be plugged into or onto.&lt;br&gt;&lt;br&gt;
We've spent an enormous amount of time creating and checking these footprints and parts, but it is the end user's responsibility to ensure correctness and suitablity for a given componet or application. If you enjoy using this library, please buy one of our products at www.sparkfun.com.
&lt;br&gt;&lt;br&gt;
&lt;b&gt;Licensing:&lt;/b&gt; CC v3.0 Share-Alike You are welcome to use this library for commercial purposes. For attribution, we ask that when you begin to sell your device using our footprint, you email us with a link to the product being sold. We want bragging rights that we helped (in a very small part) to create your 8th world wonder. We would like the opportunity to feature your device on our homepage.</description>
<packages>
<package name="JST-6-SMD-VERT-1.0MM">
<wire x1="-2.54" y1="-1.651" x2="2.54" y2="-1.651" width="0.254" layer="21"/>
<wire x1="-4.318" y1="0.508" x2="-4.318" y2="1.905" width="0.254" layer="21"/>
<wire x1="3.302" y1="1.905" x2="4.318" y2="1.905" width="0.254" layer="21"/>
<wire x1="4.318" y1="1.905" x2="4.318" y2="0.508" width="0.254" layer="21"/>
<wire x1="-4.318" y1="1.905" x2="-3.302" y2="1.905" width="0.254" layer="21"/>
<circle x="-2.54" y="2.54" radius="0.1047" width="0.4064" layer="21"/>
<smd name="P$1" x="-3.84" y="-0.955" dx="1.2" dy="1.8" layer="1"/>
<smd name="P$2" x="3.76" y="-0.955" dx="1.2" dy="1.8" layer="1"/>
<smd name="1" x="-2.54" y="1.27" dx="0.6" dy="1.55" layer="1"/>
<smd name="2" x="-1.54" y="1.27" dx="0.6" dy="1.55" layer="1"/>
<smd name="3" x="-0.54" y="1.27" dx="0.6" dy="1.55" layer="1"/>
<smd name="4" x="0.46" y="1.27" dx="0.6" dy="1.55" layer="1"/>
<smd name="5" x="1.46" y="1.27" dx="0.6" dy="1.55" layer="1"/>
<smd name="6" x="2.46" y="1.27" dx="0.6" dy="1.55" layer="1"/>
<text x="-1.27" y="2.54" size="0.4064" layer="25">&gt;Name</text>
<text x="-1.27" y="-2.54" size="0.4064" layer="27">&gt;VALUE</text>
</package>
<package name="1X06">
<wire x1="11.43" y1="0.635" x2="12.065" y2="1.27" width="0.2032" layer="21"/>
<wire x1="12.065" y1="1.27" x2="13.335" y2="1.27" width="0.2032" layer="21"/>
<wire x1="13.335" y1="1.27" x2="13.97" y2="0.635" width="0.2032" layer="21"/>
<wire x1="13.97" y1="-0.635" x2="13.335" y2="-1.27" width="0.2032" layer="21"/>
<wire x1="13.335" y1="-1.27" x2="12.065" y2="-1.27" width="0.2032" layer="21"/>
<wire x1="12.065" y1="-1.27" x2="11.43" y2="-0.635" width="0.2032" layer="21"/>
<wire x1="6.985" y1="1.27" x2="8.255" y2="1.27" width="0.2032" layer="21"/>
<wire x1="8.255" y1="1.27" x2="8.89" y2="0.635" width="0.2032" layer="21"/>
<wire x1="8.89" y1="-0.635" x2="8.255" y2="-1.27" width="0.2032" layer="21"/>
<wire x1="8.89" y1="0.635" x2="9.525" y2="1.27" width="0.2032" layer="21"/>
<wire x1="9.525" y1="1.27" x2="10.795" y2="1.27" width="0.2032" layer="21"/>
<wire x1="10.795" y1="1.27" x2="11.43" y2="0.635" width="0.2032" layer="21"/>
<wire x1="11.43" y1="-0.635" x2="10.795" y2="-1.27" width="0.2032" layer="21"/>
<wire x1="10.795" y1="-1.27" x2="9.525" y2="-1.27" width="0.2032" layer="21"/>
<wire x1="9.525" y1="-1.27" x2="8.89" y2="-0.635" width="0.2032" layer="21"/>
<wire x1="3.81" y1="0.635" x2="4.445" y2="1.27" width="0.2032" layer="21"/>
<wire x1="4.445" y1="1.27" x2="5.715" y2="1.27" width="0.2032" layer="21"/>
<wire x1="5.715" y1="1.27" x2="6.35" y2="0.635" width="0.2032" layer="21"/>
<wire x1="6.35" y1="-0.635" x2="5.715" y2="-1.27" width="0.2032" layer="21"/>
<wire x1="5.715" y1="-1.27" x2="4.445" y2="-1.27" width="0.2032" layer="21"/>
<wire x1="4.445" y1="-1.27" x2="3.81" y2="-0.635" width="0.2032" layer="21"/>
<wire x1="6.985" y1="1.27" x2="6.35" y2="0.635" width="0.2032" layer="21"/>
<wire x1="6.35" y1="-0.635" x2="6.985" y2="-1.27" width="0.2032" layer="21"/>
<wire x1="8.255" y1="-1.27" x2="6.985" y2="-1.27" width="0.2032" layer="21"/>
<wire x1="-0.635" y1="1.27" x2="0.635" y2="1.27" width="0.2032" layer="21"/>
<wire x1="0.635" y1="1.27" x2="1.27" y2="0.635" width="0.2032" layer="21"/>
<wire x1="1.27" y1="-0.635" x2="0.635" y2="-1.27" width="0.2032" layer="21"/>
<wire x1="1.27" y1="0.635" x2="1.905" y2="1.27" width="0.2032" layer="21"/>
<wire x1="1.905" y1="1.27" x2="3.175" y2="1.27" width="0.2032" layer="21"/>
<wire x1="3.175" y1="1.27" x2="3.81" y2="0.635" width="0.2032" layer="21"/>
<wire x1="3.81" y1="-0.635" x2="3.175" y2="-1.27" width="0.2032" layer="21"/>
<wire x1="3.175" y1="-1.27" x2="1.905" y2="-1.27" width="0.2032" layer="21"/>
<wire x1="1.905" y1="-1.27" x2="1.27" y2="-0.635" width="0.2032" layer="21"/>
<wire x1="-1.27" y1="0.635" x2="-1.27" y2="-0.635" width="0.2032" layer="21"/>
<wire x1="-0.635" y1="1.27" x2="-1.27" y2="0.635" width="0.2032" layer="21"/>
<wire x1="-1.27" y1="-0.635" x2="-0.635" y2="-1.27" width="0.2032" layer="21"/>
<wire x1="0.635" y1="-1.27" x2="-0.635" y2="-1.27" width="0.2032" layer="21"/>
<wire x1="13.97" y1="0.635" x2="13.97" y2="-0.635" width="0.2032" layer="21"/>
<pad name="1" x="0" y="0" drill="1.016" diameter="1.8796" rot="R90"/>
<pad name="2" x="2.54" y="0" drill="1.016" diameter="1.8796" rot="R90"/>
<pad name="3" x="5.08" y="0" drill="1.016" diameter="1.8796" rot="R90"/>
<pad name="4" x="7.62" y="0" drill="1.016" diameter="1.8796" rot="R90"/>
<pad name="5" x="10.16" y="0" drill="1.016" diameter="1.8796" rot="R90"/>
<pad name="6" x="12.7" y="0" drill="1.016" diameter="1.8796" rot="R90"/>
<text x="-1.3462" y="1.8288" size="1.27" layer="25" ratio="10">&gt;NAME</text>
<text x="-1.27" y="-3.175" size="1.27" layer="27">&gt;VALUE</text>
<rectangle x1="12.446" y1="-0.254" x2="12.954" y2="0.254" layer="51"/>
<rectangle x1="9.906" y1="-0.254" x2="10.414" y2="0.254" layer="51"/>
<rectangle x1="7.366" y1="-0.254" x2="7.874" y2="0.254" layer="51"/>
<rectangle x1="4.826" y1="-0.254" x2="5.334" y2="0.254" layer="51"/>
<rectangle x1="2.286" y1="-0.254" x2="2.794" y2="0.254" layer="51"/>
<rectangle x1="-0.254" y1="-0.254" x2="0.254" y2="0.254" layer="51"/>
</package>
</packages>
</library>
<library name="SparkFun-Connectors" urn="urn:adsk.eagle:library:513">
<description>&lt;h3&gt;SparkFun Connectors&lt;/h3&gt;
This library contains electrically-functional connectors. 
&lt;br&gt;
&lt;br&gt;
We've spent an enormous amount of time creating and checking these footprints and parts, but it is &lt;b&gt; the end user's responsibility&lt;/b&gt; to ensure correctness and suitablity for a given componet or application. 
&lt;br&gt;
&lt;br&gt;If you enjoy using this library, please buy one of our products at &lt;a href=" www.sparkfun.com"&gt;SparkFun.com&lt;/a&gt;.
&lt;br&gt;
&lt;br&gt;
&lt;b&gt;Licensing:&lt;/b&gt; Creative Commons ShareAlike 4.0 International - https://creativecommons.org/licenses/by-sa/4.0/ 
&lt;br&gt;
&lt;br&gt;
You are welcome to use this library for commercial purposes. For attribution, we ask that when you begin to sell your device using our footprint, you email us with a link to the product being sold. We want bragging rights that we helped (in a very small part) to create your 8th world wonder. We would like the opportunity to feature your device on our homepage.</description>
<packages>
<package name="USB-MICROB-PTH" urn="urn:adsk.eagle:footprint:37896/1" library_version="1">
<smd name="GND" x="1.33141875" y="1.33091875" dx="1.75" dy="0.4" layer="1" rot="R90" cream="no"/>
<smd name="ID" x="0.68141875" y="1.33091875" dx="1.75" dy="0.4" layer="1" rot="R90" cream="no"/>
<smd name="D+" x="0.03141875" y="1.33091875" dx="1.75" dy="0.4" layer="1" rot="R90" cream="no"/>
<smd name="D-" x="-0.61858125" y="1.33091875" dx="1.75" dy="0.4" layer="1" rot="R90" cream="no"/>
<smd name="VBUS" x="-1.26858125" y="1.33091875" dx="1.75" dy="0.4" layer="1" rot="R90" cream="no"/>
<smd name="SHIELD" x="-2.79358125" y="1.60591875" dx="1.46" dy="2" layer="1" rot="R90"/>
<smd name="SHEILD2" x="2.83101875" y="1.60591875" dx="1.46" dy="2" layer="1" rot="R90"/>
<smd name="SHIELD4" x="0.996178125" y="-1.35178125" dx="2.5" dy="1.425" layer="1" rot="R90"/>
<smd name="SHIELD3" x="-0.97858125" y="-1.34908125" dx="2.5" dy="1.425" layer="1" rot="R90"/>
<smd name="P$10" x="2.48141875" y="1.59791875" dx="1.3" dy="1" layer="16" roundness="100" rot="R90" stop="no" cream="no"/>
<smd name="P$2" x="2.48741875" y="1.59391875" dx="1.3" dy="1" layer="1" roundness="100" rot="R90"/>
<smd name="P$12" x="-2.65854375" y="-1.143784375" dx="1.5" dy="1.1" layer="1" roundness="100" rot="R90"/>
<smd name="P$6" x="-2.36798125" y="1.60391875" dx="1.3" dy="1" layer="1" roundness="100" rot="R90"/>
<smd name="P$1" x="2.70141875" y="-1.14208125" dx="2.1" dy="1.4" layer="16" roundness="100" rot="R90" stop="no" cream="no"/>
<smd name="P$8" x="2.70141875" y="-1.14208125" dx="1.5" dy="1.1" layer="1" roundness="100" rot="R90"/>
<smd name="P$3" x="-2.65854375" y="-1.143784375" dx="2.1" dy="1.4" layer="16" roundness="100" rot="R90" stop="no" cream="no"/>
<smd name="P$4" x="-2.36798125" y="1.60391875" dx="1.3" dy="1" layer="16" roundness="100" rot="R90" stop="no" cream="no"/>
<polygon width="0.08" layer="1">
<vertex x="-3.79358125" y="0.64591875"/>
<vertex x="-3.79858125" y="0.00591875"/>
<vertex x="-3.32358125" y="0.00591875"/>
<vertex x="-3.31858125" y="-1.88408125" curve="90"/>
<vertex x="-2.91358125" y="-2.17908125"/>
<vertex x="-2.31358125" y="-2.17908125" curve="90"/>
<vertex x="-1.96858125" y="-1.89408125"/>
<vertex x="-1.96358125" y="0.64591875"/>
</polygon>
<polygon width="0.08" layer="1">
<vertex x="3.87641875" y="0.64591875"/>
<vertex x="3.87641875" y="0.01091875"/>
<vertex x="3.37141875" y="0.01091875"/>
<vertex x="3.37141875" y="-1.87408125" curve="-90"/>
<vertex x="2.96641875" y="-2.16908125"/>
<vertex x="2.36641875" y="-2.16908125" curve="-90"/>
<vertex x="2.04141875" y="-1.86408125"/>
<vertex x="2.04141875" y="0.64591875"/>
</polygon>
<polygon width="0.1016" layer="29">
<vertex x="-3.87858125" y="0.73151875"/>
<vertex x="-1.87198125" y="0.73151875"/>
<vertex x="-1.87198125" y="-0.13208125"/>
<vertex x="-1.89738125" y="-1.75768125"/>
<vertex x="-1.89738125" y="-1.88468125" curve="-90"/>
<vertex x="-2.25298125" y="-2.26568125"/>
<vertex x="-2.98958125" y="-2.26568125" curve="-90"/>
<vertex x="-3.39598125" y="-1.88468125"/>
<vertex x="-3.39098125" y="-0.11788125"/>
<vertex x="-3.87358125" y="-0.11788125"/>
</polygon>
<polygon width="0.1016" layer="29">
<vertex x="1.91261875" y="0.73151875"/>
<vertex x="3.97001875" y="0.73151875"/>
<vertex x="3.97001875" y="-0.10788125"/>
<vertex x="3.46201875" y="-0.10788125"/>
<vertex x="3.46201875" y="-1.85928125" curve="-90"/>
<vertex x="3.08101875" y="-2.26568125"/>
<vertex x="2.31901875" y="-2.26568125" curve="-90"/>
<vertex x="1.93801875" y="-1.91008125"/>
</polygon>
<polygon width="0.05" layer="31">
<vertex x="-3.37058125" y="-0.13208125"/>
<vertex x="-3.82778125" y="-0.13208125"/>
<vertex x="-3.82778125" y="0.68071875"/>
<vertex x="-1.94818125" y="0.68071875"/>
<vertex x="-1.94818125" y="-1.88468125" curve="-90"/>
<vertex x="-2.27838125" y="-2.21488125"/>
<vertex x="-3.04038125" y="-2.21488125" curve="-90"/>
<vertex x="-3.34518125" y="-1.91008125"/>
<vertex x="-3.34518125" y="-0.15748125" curve="90"/>
</polygon>
<polygon width="0.05" layer="31">
<vertex x="3.41121875" y="-0.10668125"/>
<vertex x="3.89381875" y="-0.10668125"/>
<vertex x="3.89381875" y="0.68071875"/>
<vertex x="2.01421875" y="0.68071875"/>
<vertex x="2.01421875" y="-1.85928125" curve="90"/>
<vertex x="2.34441875" y="-2.18948125"/>
<vertex x="3.08101875" y="-2.18948125" curve="90"/>
<vertex x="3.38581875" y="-1.88468125"/>
<vertex x="3.38581875" y="-0.13208125" curve="-90"/>
</polygon>
<polygon width="0.05" layer="31">
<vertex x="-1.39858125" y="2.14391875"/>
<vertex x="-1.14858125" y="2.14391875"/>
<vertex x="-1.14858125" y="0.51391875"/>
<vertex x="-1.39858125" y="0.51391875"/>
</polygon>
<polygon width="0.05" layer="31">
<vertex x="-0.75858125" y="2.14391875"/>
<vertex x="-0.50858125" y="2.14391875"/>
<vertex x="-0.50858125" y="0.51391875"/>
<vertex x="-0.75858125" y="0.51391875"/>
</polygon>
<polygon width="0.05" layer="31">
<vertex x="-0.10858125" y="2.15391875"/>
<vertex x="0.14141875" y="2.15391875"/>
<vertex x="0.14141875" y="0.52391875"/>
<vertex x="-0.10858125" y="0.52391875"/>
</polygon>
<polygon width="0.05" layer="31">
<vertex x="0.55141875" y="2.15391875"/>
<vertex x="0.80141875" y="2.15391875"/>
<vertex x="0.80141875" y="0.52391875"/>
<vertex x="0.55141875" y="0.52391875"/>
</polygon>
<polygon width="0.05" layer="31">
<vertex x="1.20141875" y="2.14391875"/>
<vertex x="1.45141875" y="2.14391875"/>
<vertex x="1.45141875" y="0.51391875"/>
<vertex x="1.20141875" y="0.51391875"/>
</polygon>
<text x="-2.83858125" y="2.98591875" size="1.27" layer="25" font="vector">&gt;NAME</text>
<text x="-3.60158125" y="-4.47808125" size="1.27" layer="27" font="vector">&gt;VALUE</text>
<text x="4.61381875" y="-2.81908125" size="1.27" layer="49" font="vector">Edge of board</text>
<wire x1="-3.87858125" y1="-2.59908125" x2="3.92141875" y2="-2.59908125" width="0.1" layer="47"/>
<wire x1="3.92141875" y1="-2.59908125" x2="3.92141875" y2="2.40091875" width="0.1" layer="47"/>
<wire x1="-3.87858125" y1="-2.92608125" x2="3.92141875" y2="-2.92608125" width="0.1" layer="47"/>
<wire x1="3.92141875" y1="-2.92608125" x2="3.92141875" y2="-2.59908125" width="0.1" layer="47"/>
<wire x1="-3.87858125" y1="-2.92608125" x2="-3.87858125" y2="-2.59908125" width="0.1" layer="47"/>
<wire x1="-3.87858125" y1="-2.59908125" x2="-3.87858125" y2="2.40091875" width="0.1" layer="47"/>
<wire x1="-3.87858125" y1="2.40091875" x2="3.92141875" y2="2.40091875" width="0.1" layer="47"/>
<hole x="-2.69258125" y="-1.13408125" drill="0.7"/>
<hole x="-2.69258125" y="-1.30008125" drill="0.7"/>
<hole x="-2.69358125" y="-1.49908125" drill="0.7"/>
<hole x="-2.69358125" y="-1.66408125" drill="0.7"/>
<hole x="-2.35918125" y="1.82091875" drill="0.66"/>
<hole x="-2.34918125" y="1.69091875" drill="0.66"/>
<hole x="-2.35918125" y="1.54091875" drill="0.66"/>
<hole x="-2.35378125" y="1.43171875" drill="0.66"/>
<hole x="2.48081875" y="1.82091875" drill="0.66"/>
<hole x="2.49081875" y="1.69091875" drill="0.66"/>
<hole x="2.48081875" y="1.54091875" drill="0.66"/>
<hole x="2.48621875" y="1.43171875" drill="0.66"/>
<hole x="2.76841875" y="-1.13408125" drill="0.7"/>
<hole x="2.76741875" y="-1.30308125" drill="0.7"/>
<hole x="2.76641875" y="-1.49608125" drill="0.7"/>
<hole x="2.76641875" y="-1.66408125" drill="0.7"/>
</package>
<package name="1X02" urn="urn:adsk.eagle:footprint:37654/1" library_version="1">
<description>&lt;h3&gt;Plated Through Hole&lt;/h3&gt;
&lt;p&gt;Specifications:
&lt;ul&gt;&lt;li&gt;Pin count:2&lt;/li&gt;
&lt;li&gt;Pin pitch:0.1"&lt;/li&gt;
&lt;/ul&gt;&lt;/p&gt;
&lt;p&gt;Example device(s):
&lt;ul&gt;&lt;li&gt;CONN_02&lt;/li&gt;
&lt;/ul&gt;&lt;/p&gt;</description>
<wire x1="-0.635" y1="1.27" x2="0.635" y2="1.27" width="0.2032" layer="21"/>
<wire x1="0.635" y1="1.27" x2="1.27" y2="0.635" width="0.2032" layer="21"/>
<wire x1="1.27" y1="-0.635" x2="0.635" y2="-1.27" width="0.2032" layer="21"/>
<wire x1="1.27" y1="0.635" x2="1.905" y2="1.27" width="0.2032" layer="21"/>
<wire x1="1.905" y1="1.27" x2="3.175" y2="1.27" width="0.2032" layer="21"/>
<wire x1="3.175" y1="1.27" x2="3.81" y2="0.635" width="0.2032" layer="21"/>
<wire x1="3.81" y1="-0.635" x2="3.175" y2="-1.27" width="0.2032" layer="21"/>
<wire x1="3.175" y1="-1.27" x2="1.905" y2="-1.27" width="0.2032" layer="21"/>
<wire x1="1.905" y1="-1.27" x2="1.27" y2="-0.635" width="0.2032" layer="21"/>
<wire x1="-1.27" y1="0.635" x2="-1.27" y2="-0.635" width="0.2032" layer="21"/>
<wire x1="-0.635" y1="1.27" x2="-1.27" y2="0.635" width="0.2032" layer="21"/>
<wire x1="-1.27" y1="-0.635" x2="-0.635" y2="-1.27" width="0.2032" layer="21"/>
<wire x1="0.635" y1="-1.27" x2="-0.635" y2="-1.27" width="0.2032" layer="21"/>
<wire x1="3.81" y1="0.635" x2="3.81" y2="-0.635" width="0.2032" layer="21"/>
<pad name="1" x="0" y="0" drill="1.016" diameter="1.8796" rot="R90"/>
<pad name="2" x="2.54" y="0" drill="1.016" diameter="1.8796" rot="R90"/>
<rectangle x1="2.286" y1="-0.254" x2="2.794" y2="0.254" layer="51"/>
<rectangle x1="-0.254" y1="-0.254" x2="0.254" y2="0.254" layer="51"/>
<text x="-1.27" y="1.397" size="0.6096" layer="25" font="vector" ratio="20">&gt;NAME</text>
<text x="-1.27" y="-2.032" size="0.6096" layer="27" font="vector" ratio="20">&gt;VALUE</text>
</package>
<package name="1X04" urn="urn:adsk.eagle:footprint:37702/1" library_version="1">
<description>&lt;h3&gt;Plated Through Hole - 4 Pin&lt;/h3&gt;
&lt;p&gt;Specifications:
&lt;ul&gt;&lt;li&gt;Pin count:4&lt;/li&gt;
&lt;li&gt;Pin pitch:0.1"&lt;/li&gt;
&lt;/ul&gt;&lt;/p&gt;
&lt;p&gt;Example device(s):
&lt;ul&gt;&lt;li&gt;CONN_04&lt;/li&gt;
&lt;/ul&gt;&lt;/p&gt;</description>
<wire x1="6.985" y1="1.27" x2="8.255" y2="1.27" width="0.2032" layer="21"/>
<wire x1="8.255" y1="1.27" x2="8.89" y2="0.635" width="0.2032" layer="21"/>
<wire x1="8.89" y1="-0.635" x2="8.255" y2="-1.27" width="0.2032" layer="21"/>
<wire x1="3.81" y1="0.635" x2="4.445" y2="1.27" width="0.2032" layer="21"/>
<wire x1="4.445" y1="1.27" x2="5.715" y2="1.27" width="0.2032" layer="21"/>
<wire x1="5.715" y1="1.27" x2="6.35" y2="0.635" width="0.2032" layer="21"/>
<wire x1="6.35" y1="-0.635" x2="5.715" y2="-1.27" width="0.2032" layer="21"/>
<wire x1="5.715" y1="-1.27" x2="4.445" y2="-1.27" width="0.2032" layer="21"/>
<wire x1="4.445" y1="-1.27" x2="3.81" y2="-0.635" width="0.2032" layer="21"/>
<wire x1="6.985" y1="1.27" x2="6.35" y2="0.635" width="0.2032" layer="21"/>
<wire x1="6.35" y1="-0.635" x2="6.985" y2="-1.27" width="0.2032" layer="21"/>
<wire x1="8.255" y1="-1.27" x2="6.985" y2="-1.27" width="0.2032" layer="21"/>
<wire x1="-0.635" y1="1.27" x2="0.635" y2="1.27" width="0.2032" layer="21"/>
<wire x1="0.635" y1="1.27" x2="1.27" y2="0.635" width="0.2032" layer="21"/>
<wire x1="1.27" y1="-0.635" x2="0.635" y2="-1.27" width="0.2032" layer="21"/>
<wire x1="1.27" y1="0.635" x2="1.905" y2="1.27" width="0.2032" layer="21"/>
<wire x1="1.905" y1="1.27" x2="3.175" y2="1.27" width="0.2032" layer="21"/>
<wire x1="3.175" y1="1.27" x2="3.81" y2="0.635" width="0.2032" layer="21"/>
<wire x1="3.81" y1="-0.635" x2="3.175" y2="-1.27" width="0.2032" layer="21"/>
<wire x1="3.175" y1="-1.27" x2="1.905" y2="-1.27" width="0.2032" layer="21"/>
<wire x1="1.905" y1="-1.27" x2="1.27" y2="-0.635" width="0.2032" layer="21"/>
<wire x1="-1.27" y1="0.635" x2="-1.27" y2="-0.635" width="0.2032" layer="21"/>
<wire x1="-0.635" y1="1.27" x2="-1.27" y2="0.635" width="0.2032" layer="21"/>
<wire x1="-1.27" y1="-0.635" x2="-0.635" y2="-1.27" width="0.2032" layer="21"/>
<wire x1="0.635" y1="-1.27" x2="-0.635" y2="-1.27" width="0.2032" layer="21"/>
<wire x1="8.89" y1="0.635" x2="8.89" y2="-0.635" width="0.2032" layer="21"/>
<pad name="1" x="0" y="0" drill="1.016" diameter="1.8796" rot="R90"/>
<pad name="2" x="2.54" y="0" drill="1.016" diameter="1.8796" rot="R90"/>
<pad name="3" x="5.08" y="0" drill="1.016" diameter="1.8796" rot="R90"/>
<pad name="4" x="7.62" y="0" drill="1.016" diameter="1.8796" rot="R90"/>
<rectangle x1="7.366" y1="-0.254" x2="7.874" y2="0.254" layer="51"/>
<rectangle x1="4.826" y1="-0.254" x2="5.334" y2="0.254" layer="51"/>
<rectangle x1="2.286" y1="-0.254" x2="2.794" y2="0.254" layer="51"/>
<rectangle x1="-0.254" y1="-0.254" x2="0.254" y2="0.254" layer="51"/>
<text x="-1.27" y="1.397" size="0.6096" layer="25" font="vector" ratio="20">&gt;NAME</text>
<text x="-1.27" y="-2.032" size="0.6096" layer="27" font="vector" ratio="20">&gt;VALUE</text>
</package>
</packages>
<packages3d>
<package3d name="USB-MICROB-PTH" urn="urn:adsk.eagle:package:38241/1" type="box" library_version="1">
<packageinstances>
<packageinstance name="USB-MICROB-PTH"/>
</packageinstances>
</package3d>
<package3d name="1X02" urn="urn:adsk.eagle:package:38039/1" type="box" library_version="1">
<description>Plated Through Hole
Specifications:
Pin count:2
Pin pitch:0.1"

Example device(s):
CONN_02
</description>
<packageinstances>
<packageinstance name="1X02"/>
</packageinstances>
</package3d>
<package3d name="1X04" urn="urn:adsk.eagle:package:38085/1" type="box" library_version="1">
<description>Plated Through Hole - 4 Pin
Specifications:
Pin count:4
Pin pitch:0.1"

Example device(s):
CONN_04
</description>
<packageinstances>
<packageinstance name="1X04"/>
</packageinstances>
</package3d>
</packages3d>
</library>
</libraries>
<attributes>
</attributes>
<variantdefs>
</variantdefs>
<classes>
<class number="0" name="default" width="0" drill="0">
</class>
</classes>
<designrules name="default">
<description language="de">&lt;b&gt;EAGLE Design Rules&lt;/b&gt;
&lt;p&gt;
Die Standard-Design-Rules sind so gewählt, dass sie für 
die meisten Anwendungen passen. Sollte ihre Platine 
besondere Anforderungen haben, treffen Sie die erforderlichen
Einstellungen hier und speichern die Design Rules unter 
einem neuen Namen ab.</description>
<description language="en">&lt;b&gt;EAGLE Design Rules&lt;/b&gt;
&lt;p&gt;
The default Design Rules have been set to cover
a wide range of applications. Your particular design
may have different requirements, so please make the
necessary adjustments and save your customized
design rules under a new name.</description>
<param name="layerSetup" value="(1*16)"/>
<param name="mtCopper" value="0.035mm 0.035mm 0.035mm 0.035mm 0.035mm 0.035mm 0.035mm 0.035mm 0.035mm 0.035mm 0.035mm 0.035mm 0.035mm 0.035mm 0.035mm 0.035mm"/>
<param name="mtIsolate" value="1.5mm 0.15mm 0.2mm 0.15mm 0.2mm 0.15mm 0.2mm 0.15mm 0.2mm 0.15mm 0.2mm 0.15mm 0.2mm 0.15mm 0.2mm"/>
<param name="mdWireWire" value="6mil"/>
<param name="mdWirePad" value="6mil"/>
<param name="mdWireVia" value="6mil"/>
<param name="mdPadPad" value="6mil"/>
<param name="mdPadVia" value="6mil"/>
<param name="mdViaVia" value="6mil"/>
<param name="mdSmdPad" value="6mil"/>
<param name="mdSmdVia" value="6mil"/>
<param name="mdSmdSmd" value="6mil"/>
<param name="mdViaViaSameLayer" value="6mil"/>
<param name="mnLayersViaInSmd" value="2"/>
<param name="mdCopperDimension" value="40mil"/>
<param name="mdDrill" value="6mil"/>
<param name="mdSmdStop" value="0mil"/>
<param name="msWidth" value="6mil"/>
<param name="msDrill" value="0.35mm"/>
<param name="msMicroVia" value="9.99mm"/>
<param name="msBlindViaRatio" value="0.5"/>
<param name="rvPadTop" value="0.25"/>
<param name="rvPadInner" value="0.25"/>
<param name="rvPadBottom" value="0.25"/>
<param name="rvViaOuter" value="0.25"/>
<param name="rvViaInner" value="0.25"/>
<param name="rvMicroViaOuter" value="0.25"/>
<param name="rvMicroViaInner" value="0.25"/>
<param name="rlMinPadTop" value="10mil"/>
<param name="rlMaxPadTop" value="20mil"/>
<param name="rlMinPadInner" value="10mil"/>
<param name="rlMaxPadInner" value="20mil"/>
<param name="rlMinPadBottom" value="10mil"/>
<param name="rlMaxPadBottom" value="20mil"/>
<param name="rlMinViaOuter" value="8mil"/>
<param name="rlMaxViaOuter" value="20mil"/>
<param name="rlMinViaInner" value="8mil"/>
<param name="rlMaxViaInner" value="20mil"/>
<param name="rlMinMicroViaOuter" value="4mil"/>
<param name="rlMaxMicroViaOuter" value="20mil"/>
<param name="rlMinMicroViaInner" value="4mil"/>
<param name="rlMaxMicroViaInner" value="20mil"/>
<param name="psTop" value="-1"/>
<param name="psBottom" value="-1"/>
<param name="psFirst" value="-1"/>
<param name="psElongationLong" value="100"/>
<param name="psElongationOffset" value="100"/>
<param name="mvStopFrame" value="1"/>
<param name="mvCreamFrame" value="0"/>
<param name="mlMinStopFrame" value="4mil"/>
<param name="mlMaxStopFrame" value="4mil"/>
<param name="mlMinCreamFrame" value="0mil"/>
<param name="mlMaxCreamFrame" value="0mil"/>
<param name="mlViaStopLimit" value="0mil"/>
<param name="srRoundness" value="0"/>
<param name="srMinRoundness" value="0mil"/>
<param name="srMaxRoundness" value="0mil"/>
<param name="slThermalIsolate" value="10mil"/>
<param name="slThermalsForVias" value="0"/>
<param name="dpMaxLengthDifference" value="10mm"/>
<param name="dpGapFactor" value="2.5"/>
<param name="checkAngle" value="0"/>
<param name="checkFont" value="1"/>
<param name="checkRestrict" value="1"/>
<param name="checkStop" value="0"/>
<param name="checkValues" value="0"/>
<param name="checkNames" value="1"/>
<param name="checkWireStubs" value="1"/>
<param name="checkPolygonWidth" value="0"/>
<param name="useDiameter" value="13"/>
<param name="maxErrors" value="50"/>
</designrules>
<autorouter>
<pass name="Default">
<param name="RoutingGrid" value="50mil"/>
<param name="AutoGrid" value="1"/>
<param name="Efforts" value="0"/>
<param name="TopRouterVariant" value="1"/>
<param name="tpViaShape" value="round"/>
<param name="PrefDir.1" value="a"/>
<param name="PrefDir.2" value="0"/>
<param name="PrefDir.3" value="0"/>
<param name="PrefDir.4" value="0"/>
<param name="PrefDir.5" value="0"/>
<param name="PrefDir.6" value="0"/>
<param name="PrefDir.7" value="0"/>
<param name="PrefDir.8" value="0"/>
<param name="PrefDir.9" value="0"/>
<param name="PrefDir.10" value="0"/>
<param name="PrefDir.11" value="0"/>
<param name="PrefDir.12" value="0"/>
<param name="PrefDir.13" value="0"/>
<param name="PrefDir.14" value="0"/>
<param name="PrefDir.15" value="0"/>
<param name="PrefDir.16" value="a"/>
<param name="cfVia" value="8"/>
<param name="cfNonPref" value="5"/>
<param name="cfChangeDir" value="2"/>
<param name="cfOrthStep" value="2"/>
<param name="cfDiagStep" value="3"/>
<param name="cfExtdStep" value="0"/>
<param name="cfBonusStep" value="1"/>
<param name="cfMalusStep" value="1"/>
<param name="cfPadImpact" value="4"/>
<param name="cfSmdImpact" value="4"/>
<param name="cfBusImpact" value="0"/>
<param name="cfHugging" value="3"/>
<param name="cfAvoid" value="4"/>
<param name="cfPolygon" value="10"/>
<param name="cfBase.1" value="0"/>
<param name="cfBase.2" value="1"/>
<param name="cfBase.3" value="1"/>
<param name="cfBase.4" value="1"/>
<param name="cfBase.5" value="1"/>
<param name="cfBase.6" value="1"/>
<param name="cfBase.7" value="1"/>
<param name="cfBase.8" value="1"/>
<param name="cfBase.9" value="1"/>
<param name="cfBase.10" value="1"/>
<param name="cfBase.11" value="1"/>
<param name="cfBase.12" value="1"/>
<param name="cfBase.13" value="1"/>
<param name="cfBase.14" value="1"/>
<param name="cfBase.15" value="1"/>
<param name="cfBase.16" value="0"/>
<param name="mnVias" value="20"/>
<param name="mnSegments" value="9999"/>
<param name="mnExtdSteps" value="9999"/>
<param name="mnRipupLevel" value="10"/>
<param name="mnRipupSteps" value="100"/>
<param name="mnRipupTotal" value="100"/>
</pass>
<pass name="Follow-me" refer="Default" active="yes">
</pass>
<pass name="Busses" refer="Default" active="yes">
<param name="cfNonPref" value="4"/>
<param name="cfBusImpact" value="4"/>
<param name="cfHugging" value="0"/>
<param name="mnVias" value="0"/>
</pass>
<pass name="Route" refer="Default" active="yes">
</pass>
<pass name="Optimize1" refer="Default" active="yes">
<param name="cfVia" value="99"/>
<param name="cfExtdStep" value="10"/>
<param name="cfHugging" value="1"/>
<param name="mnExtdSteps" value="1"/>
<param name="mnRipupLevel" value="0"/>
</pass>
<pass name="Optimize2" refer="Optimize1" active="yes">
<param name="cfNonPref" value="0"/>
<param name="cfChangeDir" value="6"/>
<param name="cfExtdStep" value="0"/>
<param name="cfBonusStep" value="2"/>
<param name="cfMalusStep" value="2"/>
<param name="cfPadImpact" value="2"/>
<param name="cfSmdImpact" value="2"/>
<param name="cfHugging" value="0"/>
</pass>
<pass name="Optimize3" refer="Optimize2" active="yes">
<param name="cfChangeDir" value="8"/>
<param name="cfPadImpact" value="0"/>
<param name="cfSmdImpact" value="0"/>
</pass>
<pass name="Optimize4" refer="Optimize3" active="yes">
<param name="cfChangeDir" value="25"/>
</pass>
</autorouter>
<elements>
<element name="JP3" library="microbuilder" package="1X14_ROUND70" value="" x="46.99" y="17.78" smashed="yes" rot="R90">
<attribute name="VALUE" x="50.165" y="0" size="0.4064" layer="27" ratio="10" rot="R90"/>
</element>
<element name="JP5" library="microbuilder" package="1X14_ROUND70" value="" x="62.23" y="17.78" smashed="yes" rot="R270">
<attribute name="VALUE" x="59.055" y="35.56" size="0.4064" layer="27" ratio="10" rot="R270"/>
</element>
<element name="JP6" library="microbuilder" package="1X05_ROUND_70" value="" x="54.61" y="34.29" smashed="yes" rot="R180">
<attribute name="VALUE" x="60.96" y="37.465" size="0.4064" layer="27" ratio="10" rot="R180"/>
</element>
<element name="JP11" library="microbuilder" package="1X02_ROUND" value="" x="81.026" y="17.78" smashed="yes" rot="R90">
<attribute name="VALUE" x="84.201" y="15.24" size="0.8128" layer="27" rot="R90"/>
</element>
<element name="JP12" library="microbuilder" package="1X02_ROUND" value="" x="81.026" y="12.7" smashed="yes" rot="R90">
<attribute name="VALUE" x="84.201" y="10.16" size="0.8128" layer="27" rot="R90"/>
</element>
<element name="JP13" library="microbuilder" package="1X02_ROUND" value="" x="81.026" y="7.62" smashed="yes" rot="R270">
<attribute name="VALUE" x="77.851" y="10.16" size="0.4064" layer="27" ratio="10" rot="R270"/>
</element>
<element name="JP14" library="microbuilder" package="1X08_ROUND_70" value="" x="93.726" y="12.7" smashed="yes" rot="R90">
<attribute name="VALUE" x="96.901" y="2.54" size="0.4064" layer="27" ratio="10" rot="R90"/>
</element>
<element name="U2" library="SparkFun-Connectors" package="JST-6-SMD-VERT-1.0MM" value="JST_VERTICAL" x="2.54" y="8.89" smashed="yes" rot="R270">
<attribute name="NAME" x="5.08" y="10.16" size="0.4064" layer="25" rot="R270"/>
<attribute name="VALUE" x="0" y="10.16" size="0.4064" layer="27" rot="R270"/>
</element>
<element name="JP9" library="SparkFun-Connectors" package="1X06" value="" x="10.16" y="2.54" smashed="yes" rot="R90">
<attribute name="VALUE" x="13.335" y="1.27" size="1.27" layer="27" rot="R90"/>
</element>
<element name="U3" library="SparkFun-Connectors" package="JST-6-SMD-VERT-1.0MM" value="JST_VERTICAL" x="2.54" y="27.94" smashed="yes" rot="R270">
<attribute name="NAME" x="5.08" y="29.21" size="0.4064" layer="25" rot="R270"/>
<attribute name="VALUE" x="0" y="29.21" size="0.4064" layer="27" rot="R270"/>
</element>
<element name="JP16" library="SparkFun-Connectors" package="1X06" value="" x="10.16" y="21.59" smashed="yes" rot="R90">
<attribute name="VALUE" x="13.335" y="20.32" size="1.27" layer="27" rot="R90"/>
</element>
<element name="JP1" library="microbuilder" package="1X14_ROUND70" value="" x="38.1" y="17.78" smashed="yes" rot="R90">
<attribute name="NAME" x="36.2712" y="-0.0762" size="0.8128" layer="25" ratio="18" rot="R90"/>
<attribute name="VALUE" x="41.275" y="0" size="0.4064" layer="27" ratio="10" rot="R90"/>
</element>
<element name="JP2" library="microbuilder" package="1X14_ROUND70" value="" x="71.12" y="17.78" smashed="yes" rot="R270">
<attribute name="NAME" x="72.9488" y="35.6362" size="0.8128" layer="25" ratio="18" rot="R270"/>
<attribute name="VALUE" x="67.945" y="35.56" size="0.4064" layer="27" ratio="10" rot="R270"/>
</element>
<element name="J1" library="SparkFun-Connectors" library_urn="urn:adsk.eagle:library:513" package="USB-MICROB-PTH" package3d_urn="urn:adsk.eagle:package:38241/1" value="AMP FCI 10103594-0001LF" x="93.98" y="30.48" smashed="yes" rot="R90">
<attribute name="NAME" x="90.99408125" y="27.64141875" size="1.27" layer="25" font="vector" rot="R90"/>
<attribute name="PROD_ID" value="CONN-13711" x="93.98" y="30.48" size="1.778" layer="27" rot="R90" display="off"/>
<attribute name="VALUE" x="98.45808125" y="26.87841875" size="1.27" layer="27" font="vector" rot="R90"/>
</element>
<element name="J2" library="SparkFun-Connectors" library_urn="urn:adsk.eagle:library:513" package="1X02" package3d_urn="urn:adsk.eagle:package:38039/1" value="" x="86.36" y="31.75" smashed="yes" rot="R270">
<attribute name="NAME" x="87.757" y="33.02" size="0.6096" layer="25" font="vector" ratio="20" rot="R270"/>
<attribute name="VALUE" x="84.328" y="33.02" size="0.6096" layer="27" font="vector" ratio="20" rot="R270"/>
</element>
<element name="J3" library="SparkFun-Connectors" library_urn="urn:adsk.eagle:library:513" package="1X04" package3d_urn="urn:adsk.eagle:package:38085/1" value="" x="26.67" y="41.91" smashed="yes" rot="R180">
<attribute name="NAME" x="27.94" y="40.513" size="0.6096" layer="25" font="vector" ratio="20" rot="R180"/>
<attribute name="PROD_ID" value="CONN-09696" x="26.67" y="41.91" size="1.778" layer="27" rot="R180" display="off"/>
<attribute name="VALUE" x="27.94" y="43.942" size="0.6096" layer="27" font="vector" ratio="20" rot="R180"/>
</element>
</elements>
<signals>
<signal name="MISO">
<contactref element="JP5" pad="2"/>
<contactref element="JP2" pad="2"/>
<wire x1="62.23" y1="31.75" x2="71.12" y2="31.75" width="0" layer="19" extent="1-1"/>
</signal>
<signal name="A2">
<contactref element="JP5" pad="8"/>
<contactref element="JP2" pad="8"/>
<wire x1="62.23" y1="16.51" x2="71.12" y2="16.51" width="0" layer="19" extent="1-1"/>
</signal>
<signal name="A1">
<contactref element="JP5" pad="9"/>
<contactref element="JP2" pad="9"/>
<wire x1="62.23" y1="13.97" x2="71.12" y2="13.97" width="0" layer="19" extent="1-1"/>
</signal>
<signal name="AREF">
<contactref element="JP5" pad="12"/>
<contactref element="JP2" pad="12"/>
<wire x1="62.23" y1="6.35" x2="71.12" y2="6.35" width="0" layer="19" extent="1-1"/>
</signal>
<signal name="D13">
<contactref element="JP3" pad="4"/>
<contactref element="JP1" pad="4"/>
<wire x1="38.1" y1="8.89" x2="46.99" y2="8.89" width="0" layer="19" extent="1-1"/>
</signal>
<signal name="A0">
<contactref element="JP5" pad="10"/>
<contactref element="JP2" pad="10"/>
<wire x1="62.23" y1="11.43" x2="71.12" y2="11.43" width="0" layer="19" extent="1-1"/>
</signal>
<signal name="PB22/I6/SERCOM5.1">
</signal>
<signal name="PB23/I7/SERCOM5.1">
</signal>
<signal name="PB03/I3/AIN11/SERCOM5.2">
</signal>
<signal name="SCL">
<contactref element="JP3" pad="11"/>
<contactref element="JP1" pad="11"/>
<wire x1="38.1" y1="26.67" x2="46.99" y2="26.67" width="0" layer="19" extent="1-1"/>
</signal>
<signal name="SDA">
<contactref element="JP3" pad="12"/>
<contactref element="JP1" pad="12"/>
<wire x1="38.1" y1="29.21" x2="46.99" y2="29.21" width="0" layer="19" extent="1-1"/>
</signal>
<signal name="D7">
<contactref element="JP3" pad="9"/>
<contactref element="JP1" pad="9"/>
<wire x1="38.1" y1="21.59" x2="46.99" y2="21.59" width="0" layer="19" extent="1-1"/>
</signal>
<signal name="D4">
<contactref element="JP6" pad="5"/>
</signal>
<signal name="TX">
<contactref element="JP3" pad="13"/>
<contactref element="JP1" pad="13"/>
<contactref element="J3" pad="1"/>
<wire x1="38.1" y1="31.75" x2="46.99" y2="31.75" width="0" layer="19" extent="1-1"/>
<wire x1="26.67" y1="41.91" x2="38.1" y2="31.75" width="0" layer="19" extent="1-1"/>
</signal>
<signal name="RX">
<contactref element="JP3" pad="14"/>
<contactref element="JP1" pad="14"/>
<contactref element="J3" pad="2"/>
<wire x1="38.1" y1="34.29" x2="46.99" y2="34.29" width="0" layer="19" extent="1-1"/>
<wire x1="24.13" y1="41.91" x2="38.1" y2="34.29" width="0" layer="19" extent="1-1"/>
</signal>
<signal name="!RESET">
<contactref element="JP5" pad="14"/>
<contactref element="JP2" pad="14"/>
<wire x1="62.23" y1="1.27" x2="71.12" y2="1.27" width="0" layer="19" extent="1-1"/>
</signal>
<signal name="SWCLK">
<contactref element="JP6" pad="3"/>
</signal>
<signal name="SWDIO">
<contactref element="JP6" pad="2"/>
</signal>
<signal name="EN">
<contactref element="JP6" pad="1"/>
</signal>
<signal name="D3">
<contactref element="JP6" pad="4"/>
</signal>
<signal name="D2">
<contactref element="JP5" pad="1"/>
<contactref element="JP2" pad="1"/>
<wire x1="62.23" y1="34.29" x2="71.12" y2="34.29" width="0" layer="19" extent="1-1"/>
</signal>
<signal name="VHI">
<contactref element="JP5" pad="11"/>
<contactref element="JP2" pad="11"/>
<wire x1="62.23" y1="8.89" x2="71.12" y2="8.89" width="0" layer="19" extent="1-1"/>
</signal>
<signal name="D5_5V">
<contactref element="JP3" pad="10"/>
<contactref element="JP1" pad="10"/>
<wire x1="38.1" y1="24.13" x2="46.99" y2="24.13" width="0" layer="19" extent="1-1"/>
</signal>
<signal name="VBAT">
<contactref element="JP3" pad="1"/>
<contactref element="JP1" pad="1"/>
<contactref element="J3" pad="4"/>
<wire x1="38.1" y1="1.27" x2="19.05" y2="41.91" width="0" layer="19" extent="1-1"/>
<wire x1="46.99" y1="1.27" x2="38.1" y2="1.27" width="0" layer="19" extent="1-1"/>
</signal>
<signal name="USB">
<contactref element="JP3" pad="3"/>
<contactref element="JP1" pad="3"/>
<wire x1="38.1" y1="6.35" x2="46.99" y2="6.35" width="0" layer="19" extent="1-1"/>
</signal>
<signal name="3V">
<contactref element="JP5" pad="13"/>
<contactref element="U2" pad="4"/>
<contactref element="JP9" pad="3"/>
<contactref element="U3" pad="4"/>
<contactref element="JP16" pad="3"/>
<contactref element="JP14" pad="6"/>
<contactref element="JP2" pad="13"/>
<wire x1="71.12" y1="3.81" x2="93.726" y2="16.51" width="0" layer="19" extent="1-1"/>
<wire x1="62.23" y1="3.81" x2="71.12" y2="3.81" width="0" layer="19" extent="1-1"/>
<wire x1="10.16" y1="7.62" x2="62.23" y2="3.81" width="0" layer="19" extent="1-1"/>
<wire x1="3.81" y1="8.43" x2="10.16" y2="7.62" width="0" layer="19" extent="1-1"/>
<wire x1="10.16" y1="26.67" x2="10.16" y2="7.62" width="0" layer="19" extent="1-1"/>
<wire x1="3.81" y1="27.48" x2="10.16" y2="26.67" width="0" layer="19" extent="1-1"/>
</signal>
<signal name="BSEN">
<contactref element="JP13" pad="2"/>
</signal>
<signal name="GND">
<contactref element="JP14" pad="2"/>
<contactref element="U2" pad="1"/>
<contactref element="JP9" pad="6"/>
<contactref element="U3" pad="1"/>
<contactref element="JP16" pad="6"/>
<contactref element="JP3" pad="2"/>
<contactref element="JP1" pad="2"/>
<contactref element="J1" pad="GND"/>
<contactref element="J2" pad="1"/>
<contactref element="J3" pad="3"/>
<wire x1="86.36" y1="31.75" x2="92.64908125" y2="31.81141875" width="0" layer="19" extent="1-1"/>
<wire x1="93.726" y1="6.35" x2="92.64908125" y2="31.81141875" width="0" layer="19" extent="1-1"/>
<wire x1="46.99" y1="3.81" x2="93.726" y2="6.35" width="0" layer="19" extent="1-1"/>
<wire x1="38.1" y1="3.81" x2="46.99" y2="3.81" width="0" layer="19" extent="1-1"/>
<wire x1="10.16" y1="15.24" x2="38.1" y2="3.81" width="0" layer="19" extent="1-1"/>
<wire x1="3.81" y1="11.43" x2="10.16" y2="15.24" width="0" layer="19" extent="1-1"/>
<wire x1="3.81" y1="30.48" x2="10.16" y2="15.24" width="0" layer="19" extent="1-1"/>
<wire x1="10.16" y1="34.29" x2="3.81" y2="30.48" width="0" layer="19" extent="1-1"/>
<wire x1="21.59" y1="41.91" x2="10.16" y2="34.29" width="0" layer="19" extent="1-1"/>
</signal>
<signal name="ASEN">
<contactref element="JP13" pad="1"/>
</signal>
<signal name="VMOTOR">
<contactref element="JP14" pad="1"/>
<contactref element="J1" pad="VBUS"/>
<contactref element="J2" pad="2"/>
<wire x1="86.36" y1="29.21" x2="92.64908125" y2="29.21141875" width="0" layer="19" extent="1-1"/>
<wire x1="93.726" y1="3.81" x2="92.64908125" y2="29.21141875" width="0" layer="19" extent="1-1"/>
</signal>
<signal name="AIN1">
<contactref element="JP14" pad="8"/>
<contactref element="JP5" pad="4"/>
<contactref element="JP2" pad="4"/>
<wire x1="71.12" y1="26.67" x2="93.726" y2="21.59" width="0" layer="19" extent="1-1"/>
<wire x1="62.23" y1="26.67" x2="71.12" y2="26.67" width="0" layer="19" extent="1-1"/>
</signal>
<signal name="AIN2">
<contactref element="JP14" pad="7"/>
<contactref element="JP5" pad="3"/>
<contactref element="JP2" pad="3"/>
<wire x1="71.12" y1="29.21" x2="93.726" y2="19.05" width="0" layer="19" extent="1-1"/>
<wire x1="62.23" y1="29.21" x2="71.12" y2="29.21" width="0" layer="19" extent="1-1"/>
</signal>
<signal name="BIN1">
<contactref element="JP14" pad="4"/>
<contactref element="JP5" pad="6"/>
<contactref element="JP2" pad="6"/>
<wire x1="71.12" y1="21.59" x2="93.726" y2="11.43" width="0" layer="19" extent="1-1"/>
<wire x1="62.23" y1="21.59" x2="71.12" y2="21.59" width="0" layer="19" extent="1-1"/>
</signal>
<signal name="BIN2">
<contactref element="JP14" pad="5"/>
<contactref element="JP5" pad="5"/>
<contactref element="JP2" pad="5"/>
<wire x1="71.12" y1="24.13" x2="93.726" y2="13.97" width="0" layer="19" extent="1-1"/>
<wire x1="62.23" y1="24.13" x2="71.12" y2="24.13" width="0" layer="19" extent="1-1"/>
</signal>
<signal name="NFAULT">
<contactref element="JP14" pad="3"/>
<contactref element="JP5" pad="7"/>
<contactref element="JP2" pad="7"/>
<wire x1="71.12" y1="19.05" x2="93.726" y2="8.89" width="0" layer="19" extent="1-1"/>
<wire x1="62.23" y1="19.05" x2="71.12" y2="19.05" width="0" layer="19" extent="1-1"/>
</signal>
<signal name="L_M1">
<contactref element="U2" pad="6"/>
<contactref element="JP9" pad="1"/>
<contactref element="JP11" pad="1"/>
<wire x1="10.16" y1="2.54" x2="81.026" y2="16.51" width="0" layer="19" extent="1-1"/>
<wire x1="3.81" y1="6.43" x2="10.16" y2="2.54" width="0" layer="19" extent="1-1"/>
</signal>
<signal name="L_M2">
<contactref element="U2" pad="5"/>
<contactref element="JP9" pad="2"/>
<contactref element="JP11" pad="2"/>
<wire x1="10.16" y1="5.08" x2="81.026" y2="19.05" width="0" layer="19" extent="1-1"/>
<wire x1="3.81" y1="7.43" x2="10.16" y2="5.08" width="0" layer="19" extent="1-1"/>
</signal>
<signal name="L_OUT_A">
<contactref element="U2" pad="3"/>
<contactref element="JP9" pad="4"/>
<contactref element="JP3" pad="7"/>
<contactref element="JP1" pad="7"/>
<wire x1="38.1" y1="16.51" x2="46.99" y2="16.51" width="0" layer="19" extent="1-1"/>
<wire x1="10.16" y1="10.16" x2="38.1" y2="16.51" width="0" layer="19" extent="1-1"/>
<wire x1="3.81" y1="9.43" x2="10.16" y2="10.16" width="0" layer="19" extent="1-1"/>
</signal>
<signal name="L_OUT_B">
<contactref element="U2" pad="2"/>
<contactref element="JP9" pad="5"/>
<contactref element="JP3" pad="8"/>
<contactref element="JP1" pad="8"/>
<wire x1="38.1" y1="19.05" x2="46.99" y2="19.05" width="0" layer="19" extent="1-1"/>
<wire x1="10.16" y1="12.7" x2="38.1" y2="19.05" width="0" layer="19" extent="1-1"/>
<wire x1="3.81" y1="10.43" x2="10.16" y2="12.7" width="0" layer="19" extent="1-1"/>
</signal>
<signal name="R_M1">
<contactref element="U3" pad="6"/>
<contactref element="JP16" pad="1"/>
<contactref element="JP12" pad="1"/>
<wire x1="10.16" y1="21.59" x2="81.026" y2="11.43" width="0" layer="19" extent="1-1"/>
<wire x1="3.81" y1="25.48" x2="10.16" y2="21.59" width="0" layer="19" extent="1-1"/>
</signal>
<signal name="R_M2">
<contactref element="U3" pad="5"/>
<contactref element="JP16" pad="2"/>
<contactref element="JP12" pad="2"/>
<wire x1="10.16" y1="24.13" x2="81.026" y2="13.97" width="0" layer="19" extent="1-1"/>
<wire x1="3.81" y1="26.48" x2="10.16" y2="24.13" width="0" layer="19" extent="1-1"/>
</signal>
<signal name="R_OUT_A">
<contactref element="U3" pad="3"/>
<contactref element="JP16" pad="4"/>
<contactref element="JP3" pad="5"/>
<contactref element="JP1" pad="5"/>
<wire x1="38.1" y1="11.43" x2="46.99" y2="11.43" width="0" layer="19" extent="1-1"/>
<wire x1="10.16" y1="29.21" x2="38.1" y2="11.43" width="0" layer="19" extent="1-1"/>
<wire x1="3.81" y1="28.48" x2="10.16" y2="29.21" width="0" layer="19" extent="1-1"/>
</signal>
<signal name="R_OUT_B">
<contactref element="U3" pad="2"/>
<contactref element="JP16" pad="5"/>
<contactref element="JP3" pad="6"/>
<contactref element="JP1" pad="6"/>
<wire x1="38.1" y1="13.97" x2="46.99" y2="13.97" width="0" layer="19" extent="1-1"/>
<wire x1="10.16" y1="31.75" x2="38.1" y2="13.97" width="0" layer="19" extent="1-1"/>
<wire x1="3.81" y1="29.48" x2="10.16" y2="31.75" width="0" layer="19" extent="1-1"/>
</signal>
</signals>
<mfgpreviewcolors>
<mfgpreviewcolor name="soldermaskcolor" color="0xC8008000"/>
<mfgpreviewcolor name="silkscreencolor" color="0xFFFEFEFE"/>
<mfgpreviewcolor name="backgroundcolor" color="0xFF282828"/>
<mfgpreviewcolor name="coppercolor" color="0xFFFFBF00"/>
<mfgpreviewcolor name="substratecolor" color="0xFF786E46"/>
</mfgpreviewcolors>
</board>
</drawing>
<compatibility>
<note version="8.2" severity="warning">
Since Version 8.2, EAGLE supports online libraries. The ids
of those online libraries will not be understood (or retained)
with this version.
</note>
<note version="8.3" severity="warning">
Since Version 8.3, EAGLE supports URNs for individual library
assets (packages, symbols, and devices). The URNs of those assets
will not be understood (or retained) with this version.
</note>
<note version="8.3" severity="warning">
Since Version 8.3, EAGLE supports the association of 3D packages
with devices in libraries, schematics, and board files. Those 3D
packages will not be understood (or retained) with this version.
</note>
</compatibility>
</eagle>
