G04 EAGLE Gerber RS-274X export*
G75*
%MOMM*%
%FSLAX34Y34*%
%LPD*%
%INSoldermask Top*%
%IPPOS*%
%AMOC8*
5,1,8,0,0,1.08239X$1,22.5*%
G01*
%ADD10C,1.803400*%
%ADD11C,1.905000*%
%ADD12R,1.927000X1.327000*%
%ADD13R,1.677000X0.727000*%
%ADD14C,2.006600*%
%ADD15R,2.527000X2.127000*%
%ADD16R,2.435000X0.627000*%
%ADD17C,1.127000*%
%ADD18C,3.429000*%
%ADD19C,0.731000*%


D10*
X469900Y12700D03*
X469900Y38100D03*
X469900Y63500D03*
X469900Y88900D03*
X469900Y114300D03*
X469900Y139700D03*
X469900Y165100D03*
X469900Y190500D03*
X469900Y215900D03*
X469900Y241300D03*
X469900Y266700D03*
X469900Y292100D03*
X469900Y317500D03*
X469900Y342900D03*
X622300Y342900D03*
X622300Y317500D03*
X622300Y292100D03*
X622300Y266700D03*
X622300Y241300D03*
X622300Y215900D03*
X622300Y190500D03*
X622300Y165100D03*
X622300Y139700D03*
X622300Y114300D03*
X622300Y88900D03*
X622300Y63500D03*
X622300Y38100D03*
X622300Y12700D03*
D11*
X596900Y342900D03*
X571500Y342900D03*
X546100Y342900D03*
X520700Y342900D03*
X495300Y342900D03*
X810260Y292100D03*
X810260Y317500D03*
X810260Y241300D03*
X810260Y266700D03*
X810260Y215900D03*
X810260Y190500D03*
X937260Y165100D03*
X937260Y190500D03*
X937260Y215900D03*
X937260Y241300D03*
X937260Y266700D03*
X937260Y292100D03*
X937260Y317500D03*
X937260Y342900D03*
D12*
X206350Y203500D03*
X206350Y127500D03*
D13*
X228600Y190500D03*
X228600Y180500D03*
X228600Y170500D03*
X228600Y160500D03*
X228600Y150500D03*
X228600Y140500D03*
D14*
X292100Y38100D03*
X292100Y63500D03*
X292100Y88900D03*
X292100Y114300D03*
X292100Y139700D03*
X292100Y165100D03*
D12*
X206350Y330500D03*
X206350Y254500D03*
D13*
X228600Y317500D03*
X228600Y307500D03*
X228600Y297500D03*
X228600Y287500D03*
X228600Y277500D03*
X228600Y267500D03*
D14*
X292100Y215900D03*
X292100Y241300D03*
X292100Y266700D03*
X292100Y292100D03*
X292100Y317500D03*
X292100Y342900D03*
D10*
X381000Y12700D03*
X381000Y38100D03*
X381000Y63500D03*
X381000Y88900D03*
X381000Y114300D03*
X381000Y139700D03*
X381000Y165100D03*
X381000Y190500D03*
X381000Y215900D03*
X381000Y241300D03*
X381000Y266700D03*
X381000Y292100D03*
X381000Y317500D03*
X381000Y342900D03*
X711200Y342900D03*
X711200Y317500D03*
X711200Y292100D03*
X711200Y266700D03*
X711200Y241300D03*
X711200Y215900D03*
X711200Y190500D03*
X711200Y165100D03*
X711200Y139700D03*
X711200Y114300D03*
X711200Y88900D03*
X711200Y63500D03*
X711200Y38100D03*
X711200Y12700D03*
D14*
X812800Y88900D03*
X812800Y63500D03*
X584200Y393700D03*
X558800Y393700D03*
X533400Y393700D03*
X508000Y393700D03*
D15*
X892100Y32200D03*
D16*
X886460Y60200D03*
X886460Y68200D03*
X886460Y76200D03*
X886460Y84200D03*
X886460Y92200D03*
D15*
X947100Y32200D03*
X892100Y120200D03*
X947100Y120200D03*
D17*
X917100Y54200D03*
X917100Y98200D03*
D18*
X228600Y393700D03*
X914400Y393700D03*
X228600Y50800D03*
D19*
X558800Y76200D03*
X774700Y165100D03*
X749300Y139700D03*
M02*
